{
    "categories": {
        "href": "https://api.spotify.com/v1/browse/categories?country=JP&offset=0&limit=6",
        "items": [
            {
                "href": "https://api.spotify.com/v1/browse/categories/toplists",
                "icons": [
                    {
                        "height": 275,
                        "url": "https://t.scdn.co/media/derived/toplists_11160599e6a04ac5d6f2757f5511778f_0_0_275_275.jpg",
                        "width": 275
                    }
                ],
                "id": "toplists",
                "name": "Top Lists"
            },
            {
                "href": "https://api.spotify.com/v1/browse/categories/j_tracks",
                "icons": [
                    {
                        "height": 274,
                        "url": "https://t.scdn.co/media/categories/jtracks_274x274.jpg",
                        "width": 274
                    }
                ],
                "id": "j_tracks",
                "name": "J-Tracks"
            },
            {
                "href": "https://api.spotify.com/v1/browse/categories/mood",
                "icons": [
                    {
                        "height": 274,
                        "url": "https://t.scdn.co/media/original/mood-274x274_976986a31ac8c49794cbdc7246fd5ad7_274x274.jpg",
                        "width": 274
                    }
                ],
                "id": "mood",
                "name": "Mood"
            },
            {
                "href": "https://api.spotify.com/v1/browse/categories/summer",
                "icons": [
                    {
                        "height": null,
                        "url": "https://t.scdn.co/images/8e508d7eb5b843a89c368c9507ecc429.jpeg",
                        "width": null
                    }
                ],
                "id": "summer",
                "name": "Summer"
            },
            {
                "href": "https://api.spotify.com/v1/browse/categories/pop",
                "icons": [
                    {
                        "height": 274,
                        "url": "https://t.scdn.co/media/derived/pop-274x274_447148649685019f5e2a03a39e78ba52_0_0_274_274.jpg",
                        "width": 274
                    }
                ],
                "id": "pop",
                "name": "Pop"
            },
            {
                "href": "https://api.spotify.com/v1/browse/categories/popculture",
                "icons": [
                    {
                        "height": 274,
                        "url": "https://t.scdn.co/media/derived/trending-274x274_7b238f7217985e79d3664f2734347b98_0_0_274_274.jpg",
                        "width": 274
                    }
                ],
                "id": "popculture",
                "name": "Trending"
            }
        ],
        "limit": 6,
        "next": "https://api.spotify.com/v1/browse/categories?country=JP&offset=6&limit=6",
        "offset": 0,
        "previous": null,
        "total": 36
    }
}